{
  "menu_id": "InfamyRankConverter_options",
  "parent_menu_id": "blt_options",
  "title": "InfamyRankConverter_options",
  "description": "InfamyRankConverter_options_desc",
  "items": [
    {
      "type": "multiple_choice",
      "id": "convert_normal",
      "title": "InfamyRankConverter_convert_normal",
      "description": "InfamyRankConverter_convert_normal_desc",
      "callback": "infamyrankconverter_menu_callback",
      "value": "convert_normal",
      "items": ["do_nothing", "convert_to_binary", "convert_to_hex"],
      "default_value": 1
    },
    {
      "type": "multiple_choice",
      "id": "convert_cards",
      "title": "InfamyRankConverter_convert_cards",
      "description": "InfamyRankConverter_convert_cards_desc",
      "callback": "infamyrankconverter_menu_callback",
      "value": "convert_cards",
      "items": ["do_nothing", "convert_to_binary", "convert_to_hex"],
      "default_value": 1
    }
  ]
}
